{
"metadata": {
    "version": {
        "essentia": "2.0-dev"
    }
},
"beats": {
    "confidence": [1.06800222397],
    "ticks": [[0.603718817234, 1.21904754639, 1.83437633514, 2.4497051239, 3.07664394379, 3.7151927948, 4.35374164581, 5.00390005112, 5.66566896439, 6.29260778427, 6.91954612732, 7.5464849472, 8.19664382935, 8.82358264923, 9.45052146912, 10.0890703201, 10.7392292023, 11.3777770996, 12.0047159195, 12.6432647705, 13.2818136215, 13.9087524414, 14.5356912613, 15.1626300812, 15.7895689011, 16.4397277832, 17.0782756805, 17.7168254852, 18.3669834137, 19.0171432495, 19.6556911469, 20.2942390442, 20.94439888, 21.5829467773, 22.221496582, 22.8716545105, 23.5218143463, 24.1719722748, 24.8105201721, 25.4606800079, 26.1108379364, 26.7493877411, 27.3995456696, 28.0497055054, 28.6998634338, 29.3384113312, 29.988571167, 30.6387290955, 31.3004989624, 31.9506568909, 32.6124267578, 33.2741928101, 33.9243545532, 34.5745124817, 35.2246704102, 35.8748283386, 36.5249862671, 37.1751480103, 37.8253059387, 38.4754638672, 39.1256217957, 39.7873916626, 40.4375495911, 41.0760993958, 41.7262573242, 42.3764152527, 43.0149650574, 43.6535148621, 44.3036727905, 44.953830719, 45.5923805237, 46.2193183899, 46.8578681946, 47.4964179993, 48.1233558655, 48.7619056702, 49.3888435364, 50.0041732788, 50.631111145, 51.269657135, 51.9082069397, 52.5351448059, 53.1620864868, 53.8006324768, 54.45079422, 55.08934021, 55.7278900146, 56.3780479431, 57.0282058716, 57.6783676147, 58.3169136047, 58.9438552856, 59.5824012756, 60.2093429565, 60.8362808228, 61.463218689, 62.0901565552, 62.7287063599, 63.3672561646, 64.0174102783, 64.655960083, 65.2945098877, 65.9214477539, 66.5483856201, 67.1869354248, 67.8254852295, 68.4640350342, 69.1025848389, 69.7411346436, 70.3796844482, 71.0066223145, 71.6335601807, 72.2721099854, 72.91065979, 73.5492019653, 74.18775177, 74.8263015747, 75.4648513794, 76.1034011841, 76.7419509888, 77.3805007935, 78.0190429688, 78.6575927734, 79.2845306396, 79.9114761353, 80.5500183105, 81.1885681152, 81.8155059814, 82.4424438477, 83.0577774048, 83.684715271, 84.3116531372, 84.9385910034, 85.5655288696, 86.2040786743, 86.842628479, 87.4927902222, 88.1545562744, 88.8047180176, 89.4432601929, 90.093421936, 90.7203598022, 91.3589096069, 91.9974594116, 92.6243972778, 93.2629470825, 93.8782730103, 94.4819946289, 95.0857162476, 95.6894302368, 96.2931518555, 96.9200897217, 97.5470275879, 98.1971893311, 98.8473434448, 99.4858932495, 100.124443054, 100.762992859, 101.401542664, 102.02848053, 102.667030334, 103.305580139, 103.932518005, 104.559455872, 105.186393738, 105.801719666, 106.417053223, 107.043991089, 107.670928955, 108.297866821, 108.936416626, 109.574966431, 110.201904297, 110.840454102, 111.479003906, 112.117546082, 112.756095886, 113.383033752, 114.009971619, 114.636917114, 115.26385498, 115.890792847, 116.517730713, 117.144668579, 117.771606445, 118.41015625, 119.037094116, 119.664031982, 120.302581787, 120.95274353, 121.591293335, 122.22983551, 122.868385315, 123.50693512, 124.133872986, 124.772422791, 125.399360657, 126.037910461, 126.664848328, 127.291786194, 127.930335999, 128.568893433, 129.195831299, 129.822769165, 130.449707031, 131.076644897, 131.703582764, 132.33052063, 132.957458496, 133.584396362, 134.211334229, 134.838272095, 135.465209961, 136.092147827, 136.719085693, 137.357635498, 137.996185303, 138.634735107, 139.273284912, 139.900222778, 140.527160645, 141.154098511, 141.781036377, 142.419586182, 143.058135986, 143.696685791, 144.335235596, 144.962173462, 145.612335205, 146.25088501, 146.877822876, 147.493148804, 148.12008667, 148.747024536, 149.373962402, 150.000900269, 150.627838135, 151.254776001, 151.893325806, 152.53187561, 153.170425415, 153.80897522, 154.459136963, 155.097686768, 155.736236572, 156.363174438, 157.001724243, 157.640274048, 158.278823853, 158.917373657, 159.544311523, 160.17124939, 160.809799194, 161.448348999, 162.098495483, 162.748657227, 163.39881897, 164.048980713, 164.687530518, 165.337677002, 165.987838745, 166.638000488, 167.29977417]]
}

}